<?xml version="1.0" encoding="iso-8859-1"?>
<!-- Generator: Adobe Illustrator 22.0.1, SVG Export Plug-In . SVG Version: 6.00 Build 0)  -->
<svg version="1.1" id="Layer_1" xmlns="http://www.w3.org/2000/svg" xmlns:xlink="http://www.w3.org/1999/xlink" x="0px" y="0px"
	 viewBox="-49 141 512 512" style="enable-background:new -49 141 512 512;" xml:space="preserve">
<g transform="translate(0 1)" fill="red">
	<path d="M302.458,500.136H120.22L75.963,447.2l-100.664-29.505c-6.942-1.736-13.017-7.81-14.753-14.753
		c-1.736-6.942,0-14.753,5.207-19.959c18.224-17.356,52.068-39.051,115.417-39.051h260.339c62.481,0,97.193,20.827,115.417,39.051
		c5.207,5.207,7.81,13.017,5.207,19.959c-1.736,7.81-7.81,13.017-14.753,14.753l-101.532,28.637L302.458,500.136z M128.898,482.78
		h165.749l42.522-51.2l106.739-30.373c1.736-0.868,2.603-1.736,2.603-2.603s0-2.603-0.868-3.471
		c-16.488-15.62-46.861-33.844-104.136-33.844H81.169c-57.275,0-87.647,18.224-103.268,33.844c-0.868,0.868-0.868,2.603-0.868,3.471
		s0.868,2.603,2.603,2.603L86.376,431.58L128.898,482.78z"/>
	<path d="M302.458,500.136H120.22l-58.142-69.424h297.654L302.458,500.136z M128.898,482.78h165.749l28.637-34.712H99.393
		L128.898,482.78z"/>
	<path d="M345.847,361.288H76.831l26.034-65.953c9.546-23.431,31.241-38.183,56.407-38.183h104.136
		c25.166,0,46.861,14.753,56.407,38.183L345.847,361.288z M102.864,343.932h216.949l-17.356-42.522
		c-6.075-16.488-21.695-26.902-39.051-26.902H159.271c-17.356,0-33.844,10.414-39.919,26.902L102.864,343.932z"/>
	<path d="M107.203,396c0,5.207-3.471,8.678-8.678,8.678c-5.207,0-8.678-3.471-8.678-8.678s3.471-8.678,8.678-8.678
		C103.732,387.322,107.203,390.793,107.203,396"/>
	<path d="M150.593,396c0,5.207-3.471,8.678-8.678,8.678s-8.678-3.471-8.678-8.678s3.471-8.678,8.678-8.678
		S150.593,390.793,150.593,396"/>
	<path d="M193.983,396c0,5.207-3.471,8.678-8.678,8.678s-8.678-3.471-8.678-8.678s3.471-8.678,8.678-8.678
		S193.983,390.793,193.983,396"/>
	<path d="M237.373,396c0,5.207-3.471,8.678-8.678,8.678c-5.207,0-8.678-3.471-8.678-8.678s3.471-8.678,8.678-8.678
		C233.902,387.322,237.373,390.793,237.373,396"/>
	<path d="M280.763,396c0,5.207-3.471,8.678-8.678,8.678s-8.678-3.471-8.678-8.678s3.471-8.678,8.678-8.678
		S280.763,390.793,280.763,396"/>
	<path d="M324.153,396c0,5.207-3.471,8.678-8.678,8.678s-8.678-3.471-8.678-8.678s3.471-8.678,8.678-8.678
		S324.153,390.793,324.153,396"/>
	<path d="M116.749,488.854c0.868-3.471,4.339-5.207,7.81-5.207h173.559c3.471,0,6.942,2.603,7.81,5.207 M292.044,500.136h-161.41"/>
	<path d="M274.688,361.288H147.99l31.241-104.136h65.085L274.688,361.288z M170.553,343.932h80.705l-20.827-69.424H191.38
		L170.553,343.932z"/>
</g>
</svg>
