<?xml version="1.0" encoding="utf-8"?>
<!-- Generator: Adobe Illustrator 22.0.1, SVG Export Plug-In . SVG Version: 6.00 Build 0)  -->
<svg version="1.1" id="Calque_1" xmlns="http://www.w3.org/2000/svg" xmlns:xlink="http://www.w3.org/1999/xlink" x="0px" y="0px"
	 viewBox="0 0 201.3 41.8" style="enable-background:new 0 0 201.3 41.8;" xml:space="preserve">
<style type="text/css">
	.st0{fill:#FFFFFF;}
</style>
<g>
	<path class="st0" d="M173.2,21.7c0,0,0.1,0,0.2,0c0,0,0,0.1,0.1,0.1c0,0.1,0,0.2,0,0.4c0,2.1-2,2.5-3.7,2.5c-3.9,0-6.9-2.6-6.9-6.6
		c0-3.7,2.3-6.3,6-6.3c3,0,5,1.8,5,4.8c0,0.3,0,0.6-0.1,0.9l-7.7,1.1c0.3,2.3,1.8,3.8,4.4,3.8C171.4,22.4,172.4,22.2,173.2,21.7
		 M168.6,13.7c-1.8,0-2.4,1.3-2.5,3l4.6-0.7C170.7,14.8,170,13.7,168.6,13.7"/>
	<path class="st0" d="M90,21.7c0.1,0,0.1,0,0.2,0c0,0,0,0.1,0.1,0.1c0,0.1,0,0.2,0,0.4c0,2.1-2,2.5-3.7,2.5c-4,0-6.9-2.6-6.9-6.6
		c0-3.7,2.3-6.3,6-6.3c3,0,5,1.8,5,4.8c0,0.3,0,0.6-0.1,0.9l-7.7,1.1c0.3,2.3,1.8,3.8,4.4,3.8C88.2,22.4,89.3,22.2,90,21.7
		 M85.4,13.7c-1.8,0-2.4,1.3-2.5,3l4.6-0.7C87.5,14.8,86.8,13.7,85.4,13.7"/>
	<path class="st0" d="M163.1,22.1c0,0.1,0,0.3,0,0.5c0,1.6-1.7,2.2-3,2.2c-2.6,0-4.2-1.5-4.2-4.2v-6.2h-1.4v-2.2h1.4V9.7h3.4v2.4
		h3.3v2.2h-3.3v6c0,1.3,0.7,2,2.1,2c0.5,0,1.1-0.1,1.5-0.4c0,0,0.1,0,0.1,0C163,22,163.1,22.1,163.1,22.1"/>
	<path class="st0" d="M109.4,22.1c0,0.1,0,0.3,0,0.5c0,1.6-1.7,2.2-3,2.2c-2.6,0-4.2-1.5-4.2-4.2v-6.2h-1.4v-2.2h1.4V9.7h3.4v2.4
		h3.3v2.2h-3.3v6c0,1.3,0.8,2,2,2c0.5,0,1.1-0.1,1.5-0.4c0,0,0.1,0,0.1,0C109.4,22,109.4,22.1,109.4,22.1"/>
	<path class="st0" d="M174.2,13.8c0.2-1.2,1.2-1.8,2.3-1.8c1.3,0,2.3,0.8,2.3,2.2v0.5h0.1c1-1.5,2-2.9,3.8-2.9c0.2,0,0.4,0,0.6,0.1
		l-0.2,3.3c-0.3-0.1-0.7-0.2-1.1-0.2c-1.2,0-2.2,1-3,1.9v7.5h-3.4v-9.5c0-0.5-0.2-1.1-0.8-1.1c-0.2,0-0.3,0-0.5,0.1c0,0-0.1,0-0.1,0
		C174.2,13.9,174.2,13.8,174.2,13.8"/>
	<path class="st0" d="M196.3,22.6c0,0,0.1,0,0.1,0c0,0,0,0,0,0.1c-0.1,1-0.9,1.8-2.3,1.8c-1.6,0-2.5-1-2.5-2.7v-5.7
		c0-0.9-0.5-1.3-1.2-1.3c-1.2,0-2.3,1.2-3,1.9v7.6h-3.4V12.2h3.3v2.3h0.1c1.4-1.5,2.8-2.7,4.8-2.7c0.7,0,1.4,0.2,1.9,0.7
		c0.8,0.7,0.9,1.8,0.9,2.8v6.4c0,0.6,0.2,1.1,0.7,1.1C196,22.7,196.2,22.7,196.3,22.6"/>
	<path class="st0" d="M145.3,21.8c0.8,0.5,1.8,0.7,2.8,0.7c1.1,0,2-0.4,2-1.3c0-0.8-0.8-1.2-2-1.8c-1.6-0.8-2.9-1.7-2.9-3.7
		c0-1.9,1.6-3.9,5.2-3.9c1,0,1.9,0.1,2.7,0.2l-0.4,2.3c-0.6-0.2-1.5-0.3-2.2-0.3c-1.2,0-1.9,0.5-1.9,1.2c0,0.7,0.9,1.2,2,1.8
		c1.5,0.8,3,1.6,3,3.7c0,1.7-1.3,4-5.1,4c-2.2,0-3.4-0.8-3.4-2.4c0-0.1,0-0.2,0-0.4c0,0,0-0.1,0.1-0.1
		C145.2,21.8,145.3,21.8,145.3,21.8"/>
	<path class="st0" d="M91.7,21.8c0.8,0.5,1.8,0.7,2.8,0.7c1.1,0,2-0.4,2-1.3c0-0.8-0.8-1.2-2-1.8c-1.6-0.8-2.9-1.7-2.9-3.7
		c0-1.9,1.5-3.9,5.1-3.9c1,0,1.9,0.1,2.7,0.2l-0.4,2.3c-0.6-0.2-1.5-0.3-2.3-0.3c-1.2,0-1.9,0.5-1.9,1.2c0,0.7,0.9,1.2,2,1.8
		c1.5,0.7,3,1.6,3,3.7c0,1.7-1.2,4-5,4c-2.2,0-3.5-0.8-3.5-2.4c0-0.1,0-0.2,0-0.4c0,0,0-0.1,0.1-0.1C91.6,21.8,91.7,21.8,91.7,21.8"
		/>
	<path class="st0" d="M143.7,21.7c0,0,0.1,0,0.2,0c0,0,0,0.1,0.1,0.1c0,0.1,0,0.2,0,0.4c0,2.1-2,2.5-3.7,2.5c-3.9,0-6.9-2.6-6.9-6.6
		c0-3.7,2.3-6.3,6-6.3c3,0,5,1.8,5,4.8c0,0.3,0,0.6-0.1,0.9l-7.7,1.1c0.3,2.3,1.8,3.8,4.4,3.8C141.9,22.4,142.9,22.2,143.7,21.7
		 M139.1,13.7c-1.8,0-2.4,1.3-2.5,3l4.6-0.7C141.2,14.8,140.5,13.7,139.1,13.7"/>
	<path class="st0" d="M70.5,24.6c-1.5,0-3.2-0.1-4.7-0.4l-0.1,0V8.6l0.1,0C68,8.2,69.7,8,71.1,8h0c1.9,0,3.1,0.2,4.3,0.8
		c0.7,0.3,1.2,0.8,1.5,1.3c0.3,0.5,0.5,1,0.5,1.6c0,0.3-0.1,1-0.5,1.8c-0.4,0.6-1,1.2-1.9,1.6c0.6,0.1,1.1,0.4,1.5,0.6
		c0.8,0.4,1.4,1,1.7,1.7c0.3,0.7,0.5,1.5,0.4,2.4c-0.2,1.7-1.3,3.1-3,3.9c-1,0.5-2.2,0.8-3.6,0.9C71.6,24.6,71.1,24.6,70.5,24.6
		 M69.5,22.2c0.4,0.1,0.9,0.1,1.4,0.1c1.3,0,1.9-0.3,2.4-0.6c0.5-0.3,0.9-0.7,1.1-1.2c0.3-0.5,0.4-1.1,0.3-1.7
		c-0.1-1.1-0.8-1.9-2-2.3c-0.4-0.1-0.9-0.2-1.4-0.2c-0.6,0-1.2,0.1-1.8,0.2V22.2z M69.5,10.2v4.9c1.7-0.1,2.6-0.5,3.3-1
		c0.7-0.5,1.2-1.2,1.2-1.9c0-0.4-0.1-0.8-0.4-1.2c-0.3-0.4-0.8-0.7-1.5-0.8c-0.4-0.1-0.9-0.1-1.4-0.1C70.3,10.2,69.9,10.2,69.5,10.2
		"/>
	<path class="st0" d="M127.8,10.5c0.3-0.1,0.5-0.1,0.6-0.1c0.8,0.1,1.3,1.6,1.2,4.1c0,1.2-0.3,3-0.9,4.6c-0.3,0.8-0.6,1.4-0.9,1.8
		c-0.4,0.5-0.8,0.7-1.2,0.7h-0.1c-0.1,0-0.2,0-0.3,0l-1.9-13.1h-3.8l1.4,8.7c-0.1,0.6-0.3,1.7-0.8,2.7c-0.5,1-1,1.5-1.7,1.6
		c-0.1,0-0.3,0-0.4,0c-0.1,0-0.1,0-0.2,0l-1.9-13.1h-3.8l2.6,16l0.1,0c0.5,0.1,1,0.2,1.5,0.2c0.4,0,0.8,0,1.2-0.1
		c1-0.2,1.9-0.8,2.6-1.6c0.6-0.7,1-1.5,1.3-2.4l0.7,3.9l0.1,0c0.7,0.2,1.2,0.2,1.7,0.2c0.1,0,0.3,0,0.4,0c1,0,1.9-0.3,2.7-0.8
		c0.8-0.5,1.4-1.2,2-2c0.8-1.2,1.4-2.7,1.8-4.5c0.4-1.5,0.6-3.2,0.6-4.8c0-1.3-0.2-2.4-0.6-3.1c-0.5-0.9-1.2-1.3-2.1-1.3
		c-0.5,0-1,0.2-1.4,0.6c-0.3,0.3-0.7,0.8-0.7,1.8c0,0,0,0.1,0.1,0.1C127.7,10.5,127.8,10.5,127.8,10.5"/>
	<polygon class="st0" points="88.5,39.8 88.5,35.7 84.7,35.7 84.7,39.8 82.6,39.8 82.6,31 84.7,31 84.7,34.4 88.5,34.4 88.5,31 
		90.5,31 90.5,39.8 	"/>
	<path class="st0" d="M95.3,40c-2.1,0-3.2-1.6-3.2-3.6c0-2.1,1.3-3.5,3.5-3.5c2,0,3.2,1.2,3.2,3.3C98.7,38.3,97.4,40,95.3,40
		 M95.3,34.1c-1.1,0-1.4,1.2-1.4,2.1c0,0.9,0.2,2.6,1.4,2.6c1.1,0,1.4-1.5,1.4-2.4C96.7,35.5,96.5,34.1,95.3,34.1"/>
	<path class="st0" d="M159.2,40c-2.1,0-3.2-1.6-3.2-3.6c0-2.1,1.3-3.5,3.5-3.5c2,0,3.2,1.2,3.2,3.3C162.6,38.3,161.4,40,159.2,40
		 M159.2,34.1c-1.1,0-1.4,1.2-1.4,2.1c0,0.9,0.2,2.6,1.4,2.6c1.1,0,1.4-1.5,1.4-2.4C160.7,35.5,160.4,34.1,159.2,34.1"/>
	<path class="st0" d="M110.1,38.3C110.2,38.3,110.2,38.3,110.1,38.3c0.1,0,0.1,0,0.1,0.1c0,0.1,0,0.1,0,0.2c0,1.1-1.1,1.4-2,1.4
		c-2.1,0-3.8-1.4-3.8-3.6c0-2,1.3-3.4,3.3-3.4c1.6,0,2.7,1,2.7,2.6c0,0.2,0,0.3,0,0.5l-4.2,0.6c0.2,1.2,1,2.1,2.4,2.1
		C109.2,38.7,109.7,38.6,110.1,38.3 M107.6,34c-1,0-1.3,0.7-1.4,1.6l2.5-0.4C108.8,34.5,108.4,34,107.6,34"/>
	<path class="st0" d="M149.2,38.3C149.2,38.3,149.3,38.3,149.2,38.3c0.1,0,0.1,0,0.1,0.1c0,0.1,0,0.1,0,0.2c0,1.1-1.1,1.4-2,1.4
		c-2.1,0-3.8-1.4-3.8-3.6c0-2,1.3-3.4,3.3-3.4c1.6,0,2.7,1,2.7,2.6c0,0.2,0,0.3,0,0.5l-4.2,0.6c0.1,1.2,1,2.1,2.4,2.1
		C148.2,38.7,148.8,38.6,149.2,38.3 M146.7,34c-1,0-1.3,0.7-1.4,1.6l2.5-0.4C147.8,34.5,147.5,34,146.7,34"/>
	<path class="st0" d="M104.2,38.6c0,0.1,0,0.2,0,0.2c0,0.9-0.9,1.2-1.7,1.2c-1.4,0-2.3-0.8-2.3-2.3v-3.4h-0.8v-1.2h0.8v-1.3h1.8v1.3
		h1.8v1.2h-1.8v3.3c0,0.7,0.4,1.1,1.1,1.1c0.3,0,0.6-0.1,0.8-0.2C104.1,38.5,104.1,38.5,104.2,38.6
		C104.1,38.5,104.2,38.5,104.2,38.6"/>
	<path class="st0" d="M173.7,38.6c0,0.1,0,0.2,0,0.2c0,0.9-0.9,1.2-1.7,1.2c-1.4,0-2.3-0.8-2.3-2.3v-3.4H169v-1.2h0.8v-1.3h1.8v1.3
		h1.8v1.2h-1.8v3.3c0,0.7,0.4,1.1,1.1,1.1c0.3,0,0.6-0.1,0.8-0.2C173.6,38.5,173.7,38.5,173.7,38.6
		C173.7,38.5,173.7,38.5,173.7,38.6"/>
	<path class="st0" d="M163.4,34c0.1-0.7,0.6-1,1.3-1c0.7,0,1.2,0.4,1.2,1.2v0.2h0c0.5-0.8,1.1-1.6,2.1-1.6c0.1,0,0.2,0,0.3,0
		l-0.1,1.8c-0.2-0.1-0.4-0.1-0.6-0.1c-0.7,0-1.2,0.5-1.7,1v4.1h-1.8v-5.2c0-0.3-0.1-0.6-0.4-0.6C163.7,34,163.6,34,163.4,34
		C163.5,34.1,163.4,34.1,163.4,34C163.4,34,163.4,34,163.4,34"/>
	<path class="st0" d="M115.1,38.4c0.4,0.3,1,0.4,1.5,0.4c0.6,0,1.1-0.2,1.1-0.7c0-0.4-0.4-0.7-1.1-1c-0.9-0.4-1.6-0.9-1.6-2
		c0-1,0.8-2.1,2.8-2.1c0.5,0,1,0.1,1.5,0.1l-0.2,1.3c-0.4-0.1-0.8-0.2-1.2-0.2c-0.7,0-1,0.3-1,0.6c0,0.4,0.5,0.7,1.1,1
		c0.8,0.4,1.6,0.9,1.6,2c0,0.9-0.7,2.2-2.8,2.2c-1.2,0-1.9-0.4-1.9-1.3c0-0.1,0-0.1,0-0.2C114.9,38.4,115,38.4,115.1,38.4
		C115,38.4,115,38.4,115.1,38.4"/>
	<path class="st0" d="M150.5,38.4c0.4,0.3,1,0.4,1.5,0.4c0.6,0,1.1-0.2,1.1-0.7c0-0.4-0.4-0.7-1.1-1c-0.9-0.4-1.6-0.9-1.6-2
		c0-1,0.8-2.1,2.8-2.1c0.5,0,1,0.1,1.5,0.1l-0.2,1.3c-0.3-0.1-0.8-0.2-1.2-0.2c-0.7,0-1,0.3-1,0.6c0,0.4,0.5,0.7,1.1,1
		c0.8,0.4,1.6,0.9,1.6,2c0,0.9-0.7,2.2-2.8,2.2c-1.2,0-1.9-0.4-1.9-1.3c0-0.1,0-0.1,0-0.2C150.4,38.4,150.4,38.4,150.5,38.4
		C150.5,38.4,150.5,38.4,150.5,38.4"/>
	<path class="st0" d="M174.3,38.4c0.4,0.3,1,0.4,1.5,0.4c0.6,0,1.1-0.2,1.1-0.7c0-0.4-0.4-0.7-1.1-1c-0.9-0.4-1.6-0.9-1.6-2
		c0-1,0.8-2.1,2.8-2.1c0.5,0,1,0.1,1.5,0.1l-0.2,1.3c-0.3-0.1-0.8-0.2-1.2-0.2c-0.7,0-1,0.3-1,0.6c0,0.4,0.5,0.7,1.1,1
		c0.8,0.4,1.6,0.9,1.6,2c0,0.9-0.7,2.2-2.8,2.2c-1.2,0-1.9-0.4-1.9-1.3c0-0.1,0-0.1,0-0.2C174.2,38.4,174.2,38.4,174.3,38.4
		C174.2,38.4,174.3,38.4,174.3,38.4"/>
	<path class="st0" d="M143.4,38.8C143.4,38.8,143.4,38.8,143.4,38.8C143.4,38.8,143.5,38.8,143.4,38.8c0,0.8-0.6,1.1-1.3,1.1
		c-1.8,0-2.8-1.9-3.5-3.9c-0.3,0-0.5,0-0.8,0v3.8h-2V31c1-0.1,1.9-0.1,2.9-0.1c1.6,0,3.5,0.4,3.6,2.4c0,1.2-0.9,2-1.8,2.4
		c0.6,1.2,1.8,3.1,2.7,3.1C143.2,38.8,143.3,38.8,143.4,38.8 M138.4,32.1c-0.2,0-0.4,0-0.7,0.1v2.8c0.2,0,0.5,0,0.7,0
		c0.9,0,1.7-0.4,1.7-1.4C140.2,32.5,139.4,32.1,138.4,32.1"/>
	<path class="st0" d="M128.7,34.9C128.7,34.9,128.7,34.9,128.7,34.9c-0.1,0-0.1,0-0.1,0c0-0.1,0-0.1,0-0.2c0-0.6,0.5-0.9,1-0.9
		c1.1,0,1.7,1,1.7,2c0,0.9-0.4,1.7-0.9,2.4c0.6,0.5,1.2,1.1,1.9,1.6h-2.7c-0.1-0.1-0.5-0.4-0.6-0.5c-0.7,0.4-1.6,0.7-2.5,0.7
		c-1.5,0-3.1-1-3.1-2.7c0-1,0.5-1.8,1.4-2.3c-0.4-0.5-0.7-1.1-0.7-1.7c0-1.7,1.6-2.5,3.1-2.5c0.6,0,1.1,0,1.7,0.1l-0.2,1.4
		c-0.4-0.1-0.8-0.2-1.2-0.2c-0.8,0-1.4,0.4-1.4,1.2c0,1,2.2,3,3.3,4c0.2-0.3,0.3-0.7,0.3-1.1c0-0.7-0.3-1.3-0.8-1.3
		C128.9,34.9,128.8,34.9,128.7,34.9 M125.5,35.9c-0.3,0.3-0.4,0.6-0.4,1c0,1,1,1.9,2.1,1.9c0.4,0,0.7-0.1,1-0.3
		C127.2,37.7,126.3,36.8,125.5,35.9"/>
	<path class="st0" d="M114.2,38.8C114.2,38.8,114.3,38.8,114.2,38.8c0.1,0,0.1,0,0.1,0.1c-0.1,0.5-0.5,1-1.3,1
		c-0.9,0-1.3-0.6-1.3-1.5v-8h1.8v7.9c0,0.3,0.1,0.6,0.4,0.6C114.1,38.9,114.1,38.9,114.2,38.8"/>
	<path class="st0" d="M12.3,17.5c0.8,0.2,1.8,0.5,2.5,0.9c2.3,1.2,3.1,3.2,2.9,5.6c-0.2,2.3-1.8,4.3-4.1,5.4c-1.4,0.7-3,1.1-4.9,1.2
		c-2.7,0.2-5.8,0-8.7-0.5V8.6c2.3-0.4,5-0.7,7.3-0.7c2.5,0,4.2,0.3,5.9,1c2,0.9,2.7,2.5,2.7,3.9C16,14.2,15.2,16.3,12.3,17.5
		 M6.9,27.8c1.7,0,2.6-0.3,3.4-0.8c1.4-0.8,2.2-2.5,2.1-4.3c-0.2-1.7-1.3-2.8-3-3.3c-1.2-0.3-2.9-0.3-4.6,0.1v8
		C5.4,27.8,6.3,27.8,6.9,27.8 M4.9,17.8c2.6-0.2,3.8-0.7,4.9-1.4c1.2-0.8,1.7-1.8,1.8-2.8c0.1-1.2-0.6-2.4-2.7-2.9
		c-1.1-0.3-2.6-0.2-3.9-0.1V17.8z M38.3,11c0.2-0.1,0.6-0.1,0.8-0.1c1.4,0.2,1.9,2.5,1.8,5.8c-0.1,3.8-1.6,9.9-4.3,9.9
		c-0.2,0-0.5,0-0.7-0.1L33.2,8.3h-5l2,12c-0.4,2.4-1.4,5.9-3.5,6.2c-0.2,0-0.7,0.1-1,0L22.9,8.3h-5l3.7,22.1
		c1.2,0.3,2.6,0.3,3.7,0.1c2.7-0.6,4.9-3.3,5.5-6.2l1,6.1c1.2,0.3,1.9,0.3,3,0.2c2.8,0,5-1.6,6.5-3.9c2.3-3.6,3.3-8.7,3.3-12.9
		c0-3.4-1-6-3.6-6c-1.3,0-2.7,1.1-2.8,2.9c0,0.1,0,0.1,0.1,0.1C38.2,11,38.3,11,38.3,11"/>
	<path class="st0" d="M55.3,0.3c0.7,7.9,0.9,14,0.9,19.1c0,5.1-0.3,11.2-0.9,19.1c0,0.2-0.1,0.3-0.3,0.3c-0.2,0-0.3-0.1-0.3-0.3
		c-0.7-7.9-0.9-14-0.9-19.1c0-5.1,0.3-11.2,0.9-19.1C54.7,0.1,54.9,0,55,0C55.2,0,55.3,0.1,55.3,0.3"/>
	<path class="st0" d="M199.7,24.5c-0.9,0-1.6-0.7-1.6-1.6c0-0.9,0.7-1.6,1.6-1.6c0.9,0,1.6,0.7,1.6,1.6
		C201.3,23.8,200.6,24.5,199.7,24.5 M199.7,21.5c-0.7,0-1.3,0.6-1.3,1.4c0,0.8,0.6,1.4,1.3,1.4c0.7,0,1.3-0.6,1.3-1.4
		C201,22.1,200.4,21.5,199.7,21.5 M199.6,23c-0.1,0-0.2,0-0.2,0v0.9H199v-2.1c0.2,0,0.4,0,0.6,0c0.4,0,0.8,0.1,0.8,0.6
		c0,0.3-0.2,0.5-0.5,0.6c0.2,0.5,0.5,0.8,0.6,0.8c0,0,0,0,0.1,0l0,0v0c0,0.1-0.1,0.2-0.2,0.2C200,23.9,199.8,23.5,199.6,23
		 M199.5,22c-0.1,0-0.1,0-0.2,0v0.7c0.1,0,0.1,0,0.2,0c0.2,0,0.5-0.1,0.5-0.4C200,22.1,199.8,22,199.5,22"/>
	<path class="st0" d="M199.7,24.5c-0.9,0-1.6-0.7-1.6-1.6c0-0.9,0.7-1.6,1.6-1.6c0.9,0,1.6,0.7,1.6,1.6
		C201.3,23.8,200.6,24.5,199.7,24.5 M199.7,21.5c-0.7,0-1.3,0.6-1.3,1.4c0,0.8,0.6,1.4,1.3,1.4c0.7,0,1.3-0.6,1.3-1.4
		C201,22.1,200.4,21.5,199.7,21.5 M199.6,23c-0.1,0-0.2,0-0.2,0v0.9H199v-2.1c0.2,0,0.4,0,0.6,0c0.4,0,0.8,0.1,0.8,0.6
		c0,0.3-0.2,0.5-0.5,0.6c0.2,0.5,0.5,0.8,0.6,0.8c0,0,0,0,0.1,0l0,0v0c0,0.1-0.1,0.2-0.2,0.2C200,23.9,199.8,23.5,199.6,23
		 M199.5,22c-0.1,0-0.1,0-0.2,0v0.7c0.1,0,0.1,0,0.2,0c0.2,0,0.5-0.1,0.5-0.4C200,22.1,199.8,22,199.5,22"/>
</g>
</svg>
