<?xml version="1.0" encoding="utf-8"?>
<!-- Generator: Adobe Illustrator 22.0.1, SVG Export Plug-In . SVG Version: 6.00 Build 0)  -->
<svg version="1.1" id="Layer_1" xmlns="http://www.w3.org/2000/svg" xmlns:xlink="http://www.w3.org/1999/xlink" x="0px" y="0px"
	 viewBox="0 0 596.6 401.6" style="enable-background:new 0 0 596.6 401.6;" xml:space="preserve">
<style type="text/css">
	.st0{fill-rule:evenodd;clip-rule:evenodd;fill:#FFFFFF;}
	.st1{fill-rule:evenodd;clip-rule:evenodd;}
</style>
<path class="st0" d="M11.3,392.1v0.8c0,4.1,1.4,5.1,8.1,5.7v1.9c-5-0.4-7.2-0.5-9.7-0.5c-2.6,0-4.8,0.1-9.7,0.5v-1.9
	c6.7-0.6,7.7-1.4,8.1-6.4l2.5-50v-0.8c0-4.2-1.5-5.2-8.1-5.7v-2c3.4,0.3,4.9,0.4,7,0.4c3.1,0,5.4-0.1,8.5-0.5l18.6,52.8l18.9-52.8
	c4.6,0.4,6.3,0.5,8.7,0.5c1.9,0,3.6-0.1,6.8-0.4v2c-6.5,0.5-8.1,1.5-8.1,5.6v0.9l1.1,50c0.1,4.9,1.3,5.9,8.1,6.4v1.9
	c-5.7-0.6-8.2-0.8-11.4-0.8c-3.2,0-5.8,0.2-11.4,0.8v-2c6.2-0.3,8.1-1.6,8.1-5.6V392l-0.9-52.8l-21,59h-1.3l-20.7-59L11.3,392.1
	L11.3,392.1z"/>
<path class="st0" d="M116.1,384.8c-1,10.3-7.1,16.4-16.7,16.4c-12.6,0-19.5-8.5-19.5-24c0-15.4,7.1-24.9,18.7-24.9
	c11.3,0,17.5,8,17.4,22.9H86c0,15.6,4.4,22.9,13.5,22.9c7.1,0,11.5-4.6,12.6-13.3H116.1L116.1,384.8z M109.8,371.6
	c-0.6-11.2-4.4-16.9-11.3-16.9c-6.6,0-11,6-12.2,16.9H109.8L109.8,371.6z"/>
<path class="st0" d="M123.6,353.9c4.5-0.4,8.6-1.3,11.9-2.3l0.6,5.6l0.2,4.1c1.7-5.7,6.1-9.1,11.3-9.1c4.8,0,8.2,3.1,8.2,7.4
	c0,2.9-1.5,4.7-3.9,4.7c-2.1,0-3.7-1.4-3.7-3.3c0-0.4,0-0.4,0.4-1.8c0.1-0.2,0.1-0.5,0.1-0.7c0-1.4-1.3-2.4-3.2-2.4
	c-5.4,0-8.9,6.9-8.9,17.6v19.9c0,4,1.2,4.8,7.1,5.1v1.7c-5-0.5-7.3-0.6-10.2-0.6c-2.9,0-5.3,0.1-10.2,0.6v-1.7
	c6-0.3,7.1-1.1,7.1-5.1v-32.1c0-6-0.1-6.1-6.9-6.3V353.9L123.6,353.9z"/>
<path class="st0" d="M192.7,366.8h-1.9c-0.8-3.3-1.3-4.8-2.4-6.8c-2-3.3-5.5-5.4-9-5.4c-7.6,0-12.2,8.3-12.2,22.4
	c0,13.9,4,20.9,11.9,20.9c6.2,0,9.6-4.2,10.8-13.2h4c-1.2,10.4-6.6,16.3-15.2,16.3c-11.1,0-18.5-9.6-18.5-24
	c0-14.9,7.5-24.9,18.8-24.9c4,0,6.5,1.1,9.5,4.1l2.5-5h1.7V366.8L192.7,366.8z"/>
<path class="st0" d="M238.5,384.8c-1,10.3-7.1,16.4-16.7,16.4c-12.6,0-19.5-8.5-19.5-24c0-15.4,7.1-24.9,18.7-24.9
	c11.3,0,17.5,8,17.4,22.9h-30c0,15.6,4.4,22.9,13.5,22.9c7.1,0,11.5-4.6,12.6-13.3H238.5L238.5,384.8z M232.2,371.6
	c-0.6-11.2-4.4-16.9-11.3-16.9c-6.6,0-11,6-12.2,16.9H232.2L232.2,371.6z"/>
<path class="st0" d="M289.8,398.7c-6.6,0.8-8.2,1.1-11.7,2.3c-0.6-2.7-1-5.5-1.1-8.6c-2.8,5.9-6.8,8.6-12.6,8.6
	c-10.3,0-17.6-9.9-17.6-24.1c0-14.4,7.1-24.3,17.5-24.3c5.6,0,9.1,2.5,12.3,8.8v-19.1c0-4.8-0.7-5.3-7-5.3v-1.4
	c4.9-0.5,9.4-1.3,13.2-2.3v57.2c0,4.1,0.3,5.3,1.6,6.1c1.1,0.6,1.4,0.6,5.5,0.8V398.7L289.8,398.7z M253.5,376.9
	c0,13.6,4.3,21.3,11.7,21.3c7.3,0,11.5-7.3,11.5-20.3c0-14.6-4.2-22.5-11.8-22.5C257.4,355.3,253.5,362.7,253.5,376.9L253.5,376.9z"
	/>
<path class="st0" d="M332.6,384.8c-1,10.3-7.1,16.4-16.7,16.4c-12.6,0-19.5-8.5-19.5-24c0-15.4,7.1-24.9,18.7-24.9
	c11.3,0,17.5,8,17.4,22.9h-30c0,15.6,4.4,22.9,13.5,22.9c7.1,0,11.5-4.6,12.6-13.3H332.6L332.6,384.8z M326.3,371.6
	c-0.6-11.2-4.4-16.9-11.3-16.9c-6.7,0-11,6-12.2,16.9H326.3L326.3,371.6z"/>
<path class="st0" d="M341.9,385.1h1.9c0.8,3.4,1.3,5.1,2.4,6.9c2,3.9,6.3,6.3,10.9,6.3c6.2,0,10.9-4.1,10.9-9.4
	c0-3.4-1.5-5.3-5.6-7.3c-1-0.5-1-0.5-9.9-4.2c-7.4-3.1-9.6-5.7-9.6-11.8c0-7.6,5.9-13,14.3-13c3.6,0,6.3,0.8,9.7,2.9l1.4-3.7h1.7v15
	h-1.9c-0.9-7.9-4.3-11.7-10.5-11.7c-5.5,0-9.7,3.8-9.7,8.7c0,3.3,1.5,5.3,5.6,7.2c1.5,0.7,2.2,1.1,9.6,4.1
	c7.5,3.1,10.1,6.1,10.1,11.9c0,8.1-6.6,14.1-15.6,14.1c-4.3,0-8.1-1.3-11.8-3.9l-2.2,4h-1.7V385.1L341.9,385.1z"/>
<polygon class="st0" points="378.2,371 378.2,375.2 403.3,375.2 403.3,371 378.2,371 "/>
<path class="st0" d="M431.7,334c6.2,0,10.2,1.1,13.4,3.8c3.6,2.9,5.5,7.3,5.5,12.3c0,6.8-3.7,12-10.6,14.9
	c8.9,2.1,13.7,7.7,13.7,16.3c0,5.8-2.9,11.7-7.3,15.1c-3.9,2.9-7.8,3.9-15.4,3.9h-24.3v-1.9c7.1-0.6,8.1-1.4,8.1-6.5v-49.4
	c0-5.1-1-5.9-8.1-6.5V334H431.7L431.7,334z M428.8,364.2c6,0,8.6-0.8,11.1-3.4c2.4-2.5,3.6-6,3.6-10.5c0-4.3-1-7.8-2.9-10
	c-2-2.5-5-3.5-9.9-3.5h-9.2v27.4H428.8L428.8,364.2z M421.5,391.9c0,4.7,1,5.5,6.7,5.5h3.7c9.1,0,14.7-6,14.7-15.8
	c0-4.7-1.4-8.8-3.9-11.3c-2.3-2.4-5.6-3.4-10.8-3.4h-10.4V391.9L421.5,391.9z"/>
<path class="st0" d="M499.1,384.8c-1,10.3-7.1,16.4-16.7,16.4c-12.6,0-19.5-8.5-19.5-24c0-15.4,7.1-24.9,18.7-24.9
	c11.3,0,17.5,8,17.4,22.9h-29.9c0,15.6,4.4,22.9,13.5,22.9c7.1,0,11.5-4.6,12.6-13.3H499.1L499.1,384.8z M492.9,371.6
	c-0.6-11.2-4.4-16.9-11.3-16.9c-6.6,0-11,6-12.2,16.9H492.9L492.9,371.6z"/>
<path class="st0" d="M506.7,354.3c4.7-0.7,8.5-1.6,11.9-3c0.4,2.6,0.5,3.9,0.7,8.8c3.5-5.3,7.5-7.6,13-7.6c5.1,0,9.6,2.4,12.1,6.4
	c1.5,2.4,2.2,5.9,2.2,10.5v24.2c0,4,1.2,4.8,7.1,5.1v1.7c-5-0.5-7.3-0.6-10.3-0.6c-3,0-5.3,0.1-10.2,0.6v-1.7
	c6.1-0.2,7.2-1.1,7.2-5.1v-24c0-4.9-0.5-7.3-1.8-9.3c-1.6-2.4-4.3-3.7-7.7-3.7c-3.7,0-7,1.7-9.1,4.5c-1.5,2.1-2.1,4.5-2.1,8.9v23.6
	c0,4,1.2,4.8,7.1,5.1v1.7c-5-0.5-7.3-0.6-10.2-0.6c-2.9,0-5.3,0.1-10.2,0.6v-1.7c6-0.3,7.1-1.1,7.1-5.1v-32.1c0-3.7-0.1-4.3-0.8-5
	c-0.8-0.7-1.5-0.7-6.1-0.9V354.3L506.7,354.3z"/>
<path class="st0" d="M587.5,355.6h-12.8c-6.2,0-7.4,1.2-11,9.9H562l2.2-12.2H596l-28,44.5h13.4c5,0,6.7-0.9,9-4.6
	c1.3-1.9,2.1-3.7,3-6.6h1.7l-2.4,13.5h-33.1L587.5,355.6L587.5,355.6z"/>
<path class="st0" d="M299.2,1.4c-35.7,0-69.3,13.9-94.5,39.1c-25.2,25.2-39.1,58.8-39.1,94.5c0,35.7,13.9,69.3,39.2,94.5
	c25.2,25.2,58.8,39.1,94.5,39.1c35.7,0,69.3-13.9,94.5-39.1c25.2-25.2,39.1-58.8,39.1-94.5c0-35.7-13.9-69.3-39.1-94.5
	C368.5,15.3,334.9,1.4,299.2,1.4L299.2,1.4z M213.1,221.2c-23-23-35.7-53.6-35.7-86.1c0-32.5,12.7-63.1,35.7-86.1
	c23-23,53.6-35.7,86.1-35.7c32.5,0,63.1,12.7,86.1,35.7c23,23,35.7,53.6,35.7,86.1c0,32.5-12.7,63.1-35.7,86.1
	c-23,23-53.6,35.7-86.1,35.7h0C266.7,256.9,236.1,244.2,213.1,221.2L213.1,221.2z"/>
<path class="st0" d="M418.8,81.6C396.7,30.5,344.1-1.3,287.5,3.3c-41.6,2.5-82.9,30-103.8,66.8c-4.1,7.3-7.5,15-9.8,22.9
	c-15.9,47.1-0.7,99.3,31.1,133.2l6.3,4.9c-22.5-22.9-37-54.1-39.7-84c-2.3-26.9,3.7-52.7,16.3-74.7c12-20.9,29.9-38.5,52.2-50.4
	C275.8,1.8,329.6,3.6,364,25.8c19.7,11.3,37,29.3,47.7,48.5c6.4,11.9,13.5,26,16.5,45.5C426.5,103.8,424.2,94,418.8,81.6L418.8,81.6
	z"/>
<path class="st0" d="M422.5,144.4c1.7-26.3-4.3-53.6-17.2-73.9c-5-7.6-13.5-18.4-19.5-25.6c29.8,27.3,42.7,62.9,42,101
	c-3.1,49.4-41.2,96.6-88.4,110.9c-48.4,15.2-100.7,1.5-133.4-36c-6.3-6.8-9.5-11.5-15.3-21c-1.7-2.5,0.2-4.2,1.6-2.4
	c25.4,42.5,74.2,66.4,125.2,59.7c35-5.3,67.1-26,87-57c3.3,0.4,4.2-1.8,2.4-3.9C416.2,181.5,421.3,163.2,422.5,144.4L422.5,144.4z"
	/>
<path class="st0" d="M186.5,192c-4.6-11.7-11.6-25.2-12.2-52c2.7,25.6,10.2,42.3,15.6,53C191.2,195.4,188.9,197.4,186.5,192
	L186.5,192z"/>
<path class="st0" d="M300.4,158.3L402,199.3c1.6,0.8,5,2.7,6.1,0.9c0.9-1.4,0.9-1.8-1.8-4.3l-0.4,0.5l-85.3-72.3L303.2,11.8
	c-0.6-2.3-0.9-3.2-2.8-3.2c-1.7,0-1.9,2.3-2.2,3.1l-18,111l-85.7,68.1c-1.3,1-3.7,1.5-5.7-2.1l2.5,6.3l4.5,5.7
	c-0.3-0.5-0.9-1.8-1.1-3.2l0.6-1.6L300.4,158.3L300.4,158.3z"/>
<path class="st1" d="M403.5,197.8l-101-60.3l0,21.7l-2-0.8l-2.2,0.6l0-22.5L193,194.1l92.1-66.5l-5.9-4l1.1-1l0.3-1.6l0.1-0.5
	l5.6,3.7l12.1-112.1c0.2-2.1,0.9-3.5,2.3-3.5c1.8,0,2.2,2.5,2.2,3.9l1,119l16.6-9.8l0.4,2.3l1.6,1.3l-5.6,3.5c0,0,85.3,64.5,88,66.6
	C407.4,197.6,404.7,198.7,403.5,197.8L403.5,197.8z M296.5,135.3l-5.3-3.5l-24.5,18.7L296.5,135.3L296.5,135.3z M310.2,132.7
	l-4.4,2.6l96.7,60.4L310.2,132.7L310.2,132.7z M291.6,127.9l6.5,4.2l2.7-121.3L291.6,127.9L291.6,127.9z"/>
</svg>
